robot_x	robot_y	robot_scale	wall_x	wall_y	wall_scale	Rendezvous	Deploy
-57.03373327528257	108.13087898530961	15862.632913666295	58.647823612699625	-60.793057227368806	15290.132838589296	0.26250000000000001	0.21249999999999999
45.93574199369891	65.18637708844034	19655.23517905769	93.82063849110173	-50.56044824659632	5415.1191612899465	0.30249999999999999	0.16500000000000001
46.98458388781967	-84.50253616755111	6422.407655426464	-34.15522842571828	-79.65499594158088	16795.692398827974	0.23000000000000001	0.22750000000000001
138.61890886082818	-19.850473140327125	11647.219522051953	-85.71788305762254	-4.205454130091283	15661.519149759057	0.19	0.12
-109.45300036671443	118.35804661650565	13789.377837130109	-102.11258293817338	-72.83488710404868	19047.6113086966	0.22750000000000001	0.25750000000000001
-50.08657928601161	-86.18168788592962	11021.418954980842	-11.256087275294476	139.25990816080298	3987.877510045318	0.30249999999999999	0.22500000000000001
-81.05084481871168	-4.799808373126808	2199.653735498236	37.926830445546244	119.81552679273904	14761.705948921815	0.11	0.36249999999999999
33.54670639148091	-7.626672062543861	7496.671525365327	-110.40066747191628	-98.53164977572519	5354.521772014949	0.25750000000000001	0.26500000000000001
69.28094790755881	110.82842430477325	15322.190546810865	13.632371853416288	45.15801725859487	4113.530372935123	0.21249999999999999	0.20250000000000001
-137.51493797696065	136.6452876513947	12000.924046299344	106.56685053452935	86.00606372072906	14614.209629583916	0.19500000000000001	0.28000000000000003
45.480624876184805	20.27728229231795	11442.916205471605	-50.991458832754375	-28.71296023410214	10175.702843433359	0.23999999999999999	0.21249999999999999
58.59452426049634	39.30351004740561	9521.7510227323	98.89306647707113	111.03231477442802	15536.014314652584	0.23749999999999999	0.29749999999999999
82.20640519401309	-98.52193142446964	15135.478635579755	-103.19180437147946	42.312597405716446	5847.73895884407	0.26500000000000001	0.14249999999999999
-138.81608219663198	74.66804244607752	20331.96649384405	-98.49498220346081	19.45213260460565	20813.44390714831	0.20250000000000001	0.115
70.13061294859867	-10.646830677528328	13623.027156494567	-34.609275815019245	-44.32906923561248	7506.400889519399	0.27250000000000002	0.14499999999999999
92.18101172817538	21.376687988031108	3961.8167691637327	29.196314553810055	-116.41107891804111	12337.852183855763	0.14499999999999999	0.26750000000000002
31.367636374454122	137.68551962344162	20116.474147620855	-58.233008388307454	-38.07131880689725	16854.330021143727	0.35499999999999998	0.19
55.03748513539199	-53.27967271317934	8018.359496139568	87.8882393938174	34.62596319981833	14380.22652777627	0.23749999999999999	0.26000000000000001
19.01238742644213	-7.657736742948231	8943.299814448661	-42.88822606576488	-85.42104001753859	13869.497603807366	0.23749999999999999	0.28999999999999998
11.196630762569242	-102.75224028948215	10134.67157271211	-69.83492358430199	60.33439479633503	7429.178684759682	0.20250000000000001	0.24249999999999999
-74.717428703197	-22.726996765260907	16175.065037940854	-88.70533521558832	-70.91484557504118	10337.625885436557	0.34250000000000003	0.20999999999999999
60.1289887260117	-16.021576899097255	3055.5168928934986	-8.317054252828768	107.76409573059112	11361.14202699782	0.20000000000000001	0.3075
-82.4176635895563	113.15566340267816	13211.370200965934	-93.81793965811417	59.687286234098394	6102.46228357125	0.2175	0.24249999999999999
20.57387061398029	-78.85865584517661	13335.057528438323	-26.655233612125272	-36.07170552155833	10870.323033648996	0.25750000000000001	0.21249999999999999
-50.85299218922334	-81.12682016327477	16863.47779339913	-41.55160823155309	98.60155728441634	8456.302945253448	0.32750000000000001	0.1825
43.48909537566621	-58.812856859755286	9378.835600872333	70.59848228097547	55.14009019205514	3800.2047975466126	0.24249999999999999	0.22
103.12487449173858	60.23281497106413	16278.612702700259	-64.50236738622027	50.85282488121479	6063.756063401876	0.17249999999999999	0.185
115.09456281637063	74.15910163623269	8273.995562784306	18.01440466582079	-137.30504851915376	9330.234942555539	0.1875	0.20250000000000001
-27.86162635494182	-135.74643504983953	3107.3067448500324	-44.01173962210417	-77.56382223489882	5454.232149738846	0.14499999999999999	0.2525
-86.63341226231854	68.13361280205021	19293.455202878657	-45.51037262558425	94.88004226901728	20464.18547967816	0.25750000000000001	0.28499999999999998
27.321457944224306	-10.560497616067437	6174.552678650352	-19.070111824651875	-105.20502599985495	11718.498178290745	0.2525	0.28999999999999998
85.66850842477592	42.914060829833716	3645.36181745308	28.975618080863	-67.66643821036965	9216.237985945958	0.17499999999999999	0.28499999999999998
-81.03866673299706	35.12742947334286	13716.83218245955	-77.7841619555044	-104.90200696398674	3926.2617501842356	0.26500000000000001	0.245
-42.57676953426753	44.962880162412574	19053.66902295451	-50.248620946939695	134.58626657530158	4454.205486170891	0.27750000000000002	0.16500000000000001
-15.054907364432012	-15.11474597719149	6597.017212883134	80.80512689827503	75.34108188354404	6047.865082888869	0.22750000000000001	0.39000000000000001
115.41716378925142	-71.33643995385732	16739.55431884746	58.76778427756099	-105.88081288309274	5907.973726477179	0.28000000000000003	0.13500000000000001
46.78663320545681	95.79662472677711	4463.670343388869	74.9944833873927	64.82216848740327	11415.323402604394	0.14499999999999999	0.23499999999999999
-113.86110305212449	18.175217540850383	19397.574468914387	-1.027104710178719	-79.20195405250607	13301.680623743687	0.35749999999999998	0.13750000000000001
-11.019476502721176	-42.14676704900715	9271.636145052435	98.17172413789413	41.45416893491836	7947.593132940059	0.39000000000000001	0.28000000000000003
10.202089429045913	-54.75276596521441	8510.570792007344	118.65308078919628	112.6411124862264	2577.9170099367934	0.31	0.26750000000000002
-51.54750493138843	54.8169037901348	6804.930398743333	-111.19974973139854	96.10197695775918	10280.022377513038	0.26000000000000001	0.23499999999999999
-58.657229656959146	117.2345645339675	14156.263620397505	120.26345110424467	-60.83819248711286	18968.218566410378	0.35749999999999998	0.19500000000000001
93.03201730538927	42.79791130174132	19132.272715716448	133.1399007108157	-53.595701449014584	9845.595825686712	0.27750000000000002	0.1875
118.25018073297872	9.022109082031989	12486.791987775334	-57.67937605635632	-33.05787729810423	12831.055921693127	0.31	0.215
-91.35106812418744	46.767330381840395	9719.620123348892	-2.5579570975935724	62.18050118663277	8526.23951030261	0.215	0.23749999999999999
120.90735799843884	24.91876523333059	5106.742764558617	93.19166835263766	29.143199254178995	7239.9660103801925	0.14999999999999999	0.215
24.050835248810444	15.748747220824015	13993.970159253013	-105.5124996910873	71.81933706771048	19396.189431316157	0.29249999999999998	0.28000000000000003
-107.78676185025199	116.62522871167653	13451.280149105924	115.43020706940041	3.0496974823948335	10572.409196904278	0.20250000000000001	0.25
-49.416237125027905	-19.708943647251473	3822.56362702521	26.57823311715768	88.27055341236758	14482.804533762961	0.16500000000000001	0.36499999999999999
-136.0158181356124	-123.64502766874946	3182.7674614754455	12.516601648408198	38.706207538393954	16748.18536616599	0.082500000000000004	0.1275
-13.36594064914891	-90.8959657022522	4000.074101538872	93.9084833668228	83.49448436627108	12525.449099915493	0.1575	0.29999999999999999
7.0923397608263485	-14.102097284886128	16093.481856100087	10.375254420545616	17.04061801445644	11738.828376004467	0.3775	0.1825
57.581445729310616	-88.94649760446693	7439.306712630145	41.99479648600078	-38.70014612745547	8619.24737466757	0.20749999999999999	0.1875
37.32966617247973	-23.236309487425615	1114.2327260426403	56.06320347163188	-83.45631545524446	18874.446266374856	0.074999999999999997	0.36249999999999999
59.18322401710353	17.70530501304478	8159.141679355699	101.71113088344603	-54.7588114535947	12375.923988337927	0.29749999999999999	0.2175
-14.61402802850266	7.214590785132003	9643.623342598865	8.235159757578145	-73.16108501955435	20633.4848698934	0.28249999999999997	0.26250000000000001
67.70323243815236	139.45712157815842	15424.635038319655	110.09135362939452	-104.46025449314197	14955.284802745024	0.17000000000000001	0.1575
84.62102507894531	11.00613566859326	19047.99358614448	27.71303249945828	-80.09723983493231	17346.35789905616	0.28000000000000003	0.25750000000000001
130.90182550335686	-116.50176952736922	19024.133422482664	-53.7493611456873	-59.468473756354015	16560.24081262218	0.2225	0.0625
-109.55657827960243	-132.04579217310388	9534.728100697732	2.9361641030522776	112.692241182695	9740.578288961093	0.27500000000000002	0.14249999999999999
